{
"0": "音訊", 
"1": "系統", 
"2": "圖形", 
"3": "輸入", 
"4": "其他", 
"5": "音樂音量:%d", 
"6": "效果音量:%d", 
"7": "解析度", 
"8": "全螢幕", 
"9": "不限制FPS", 
"10": "顯示FPS", 
"12": "執行偏移助手", 
"13": "打擊偏移:%+d", 
"14": "圖形偏移:%+d", 
"15": "Key模式軌道寬度:", 
"16": "軌道寬固定", 
"17": "面板寬固定", 
"18": "DJ模式盤軌道居左側", 
"19": "隱藏譜面動畫", 
"20": "隱藏虛擬鍵", 
"21": "使用全寬虛擬鍵:", 
"22": "重置按鍵設定", 
"23": "重置所有譜面", 
"24": "進入官網", 
"25": "語言", 
"26": "系統音量:%d", 
"27": "Key模式軌道位置:%d%%", 
"28": "檢查更新", 
"29": "使用3D軌道", 
"30": "軌道傾斜度:%d", 
"31": "啟用OTG外接鍵盤", 
"32": "開啟全部圖形效果", 
"33": "遊戲中顯示偏差條", 
"34": "開啟效果音量", 
"35": "自訂音效", 
"36": "登出", 
"37": "目前外觀:", 
"38": "使用縱向螢幕模式", 
"39": "啟用觸摸螢幕支援", 
"40": "退出", 
"41": "隱藏軌道界線", 
"42": "音訊表現:%d", 
"43": "幫助", 
"44": "實驗特性", 
"45": "開啟新的音效引擎", 
"46": "意見&問題回報", 
"47": "預覽key模式介面", 
"48": "連線", 
"49": "伺服器", 
"50": "音樂音量", 
"51": "音效音量", 
"52": "打擊偏移", 
"53": "圖形偏移", 
"54": "軌道斜度", 
"55": "自訂譜面載入路徑", 
"56": "旋轉遊玩區域", 
"57": "使用音效卡驅動:", 
"58": "顯示原始標題", 
"59": "禁用譜面諞輯器滑動", 
"60": "版本", 
"61": "平台", 
"62": "格子形歌曲顯示", 
"63": "啟用 OpenSL", 
"64": "管理外觀", 
"65": "反向滑鼠滾輪", 
"66": "在結尾啟用按鍵音", 
"67": "選中本項以更換按鍵綁定", 
"68": "設定按鍵: ",
"69": "譜面伺服器主機",
"70": "鎖定遊玩幀率",
"71": "刷新率",
"72": "顯示效果",
"73": "場景縮放",
"74": "3D運動補償",
"75": "3D厚度補償",
"76": "擋板位置",
"77": "跳過Key音譜預覽",
"78": "Hold調整",
"79": "停止在按住點",
"80": "終止在判定點",
"81": "吸附到判定點",
"82": "打擊距離",
"83": "備選",
"84": "Note Appearance",
"85": "Show Touch Point",
"86": "ISSUES\nREPORT",
"100": "删除歌曲", 
"101": "開啟歌曲目錄", 
"102": "删除譜面", 
"103": "清除個人成績", 
"104": "在Store中查看", 
"105": "譜面未上架", 
"106": "選擇效果", 
"107": "選擇模式", 
"108": "點選進行搜尋", 
"109": "編輯譜面", 
"110": "為歌曲製作新譜面", 
"111": "取得更多譜面", 
"112": "創作新譜面", 
"113": "返回", 
"114": "排名", 
"115": "選項", 
"116": "個人", 
"117": "進行中", 
"118": "完成", 
"119": "暫停", 
"120": "確定", 
"121": "難度", 
"122": "顯示所有譜面", 
"123": "在網頁中查看", 
"124": "不可下載", 
"125": "不明", 
"126": "複製及編輯", 
"127": "個人排名", 
"128": "線上排名", 
"129": "最佳成績", 
"130": "Note下降速度", 
"131": "下載清單", 
"132": "搜尋", 
"133": "如何匯入譜面", 
"134": "將音訊轉換為OGG格式", 
"135": "你確定要刪除這個譜面？", 
"136": "你確定要刪除", 
"137": "匯入譜面", 
"138": "下載完成", 
"139": "將譜面分享給...", 
"140": "創建一個新的收藏集", 
"141": "你確定要刪除這收藏集？", 
"142": "已添加收藏集", 
"143": "已刪除收藏集", 
"144": "全部譜面", 
"145": "點選開始搜尋", 
"146": "資訊清單", 
"147": "沒有資訊", 
"148": "已添加歌曲", 
"149": "已添加譜面", 
"150": "刪除", 
"151": "分享", 
"170": "好友清單", 
"171": "搜尋玩家", 
"172": "發送訊息", 
"173": "邀請到房間", 
"174": "用於新譜面的音訊", 
"175": "匯入外觀", 
"176": "評論", 
"177": "全球排名", 
"178": "歌曲", 
"179": "觀看回放", 
"180": "星期", 
"181": "禁言", 
"182": "作為曲包分享",
"183": "作為譜面包分享",
"184": "Watch Live Stream",
"185": "Stop Watch",
"186": "Live Streaming",
"187": "Start Live",
"188": "Finish Live",
"200": "觀看Ma娘的示範演奏", 
"201": "開啟隨機note模式", 
"202": "開啟note鏡像模式", 
"203": "下落速度不與BPM關聯", 
"204": "加速20%", 
"205": "加速50%", 
"206": "消失中的note", 
"207": "使用\"原本\"的判定計分", 
"208": "減速20%", 
"209": "別讓自己烙賽了", 
"210": "比賽中用相同的判定", 
"211": "以上下顛倒note遊玩",
"250": "高難度", 
"251": "特殊", 
"252": "補助", 
"253": "重置", 
"254": "分數加成", 
"255":"不允許使用此模組",
"300": "設定按鍵位置", 
"301": "按 [Esc] 清除所有綁定", 
"302": "嘗試這個offset: %d", 
"303": "確定退出?", 
"304": "退出到目前位置", 
"305": "分數", 
"306": "Combo數", 
"307": "準度", 
"308": "譜面偏移", 
"309": "降低背景亮度", 
"310":"完成",
"311": "觀看玩家",
"312": "開始直播串流",
"313": "主機已離線",
"314": "Thank you for watching",
"315": "The Host has paused",
"316": "Start watching: ",
"317": "Watch Status Display At",
"318": "Top",
"319": "Left",
"320": "Right",
"321": "Hide",
"400": "點選登入", 
"401": "登入", 
"402": "資料", 
"403": "注冊", 
"404": "使用者名稱", 
"405": "密碼", 
"406": "忘記了？", 
"500": "請將譜面放至<beatmap>目錄內", 
"501": "請將譜面放至<sdcard/data/malody/beatmap>目錄內", 
"502": "請連結iTunes載入譜面,點按重新整理", 
"503": "請將歌曲(zip格式)拖入Malody，點按重新整理", 
"504": "請將外觀壓縮為msz(zip後綴改成msz)，放入譜面目錄以讀取", 
"505": "請將 custom.wav 放至<skin>目錄底下", 
"506": "音訊偏差校準", 
"507": "當note和紅線重疊在一起時，請按F或觸摸螢幕", 
"600": "全部", 
"601": "標題", 
"602": "長度", 
"603": "BPM", 
"604": "導入時間", 
"605": "穩定版", 
"606": "Beta版", 
"607": "Alpha版", 
"608": "離線譜面", 
"609": "更新", 
"650": "順序", 
"651": "倒序", 
"700": "抖內", 
"701": "喜歡這個譜面嗎?用50金幣支持一下吧~", 
"702": "取得新排名: #%d", 
"703": "線上最佳成績%d (+%d)", 
"704": "感謝抖內", 
"705": "重試", 
"706": "上傳中", 
"707": "譜面未上架", 
"708": "上傳失敗", 
"709": "推薦", 
"710": "不推薦", 
"711": "寫評論", 
"712": "這譜面設計得很好，我很推薦~", 
"713": "這個譜面的設計有點問題，還請糾正", 
"714": "在網站上給譜面寫留言", 
"715": "留言", 
"716": "匯入至：", 
"717": "線上排名：", 
"718": "回放", 
"719": "在線排名", 
"720": "贊助50金幣", 
"721": "贊助500金幣", 
"722": "取消推薦", 
"723": "取消不推薦", 
"724": "退出", 
"725": "繼續", 
"726": "比賽排名", 
"727": "分數已上傳", 
"800": "請先登入來以其他玩家進行聊天", 
"801": "你正在公共聊天頻道，請使用英文交流", 
"802": "新增好友", 
"803": "好友", 
"804": "共同好友", 
"805": "成就", 
"806": "拼圖", 
"807": "登出帳戶", 
"808": "頻道", 
"809": "建立房間", 
"810": "房間清單", 
"811": "房間名稱", 
"812": "玩家", 
"813": "等待中", 
"814": "遊玩中", 
"815": "顯示等待中的房間", 
"816": "準備", 
"817": "取消準備", 
"818": "開始", 
"819": "踢除玩家", 
"820": "轉讓房主", 
"821": "得分模式", 
"822": "以最高成績勝出", 
"823": "以最高連段數勝出", 
"824": "以最高精准度勝出", 
"825": "隱藏音符", 
"826": "禁言", 
"827": "團隊模式", 
"828": "單人", 
"829": "兩隊", 
"830": "模組", 
"831": "上次遊玩", 
"832": "%d 天前", 
"833": "%d 小時前", 
"834": "%d 分鐘前", 
"835": "上架時間", 
"836": "上次遊玩時間", 
"837": "沒有選擇譜面", 
"838": "加入", 
"839": "保持 %d 連勝！", 
"840": "很久之前", 
"841": "顯示所有譜面", 
"842": "顯示", 
"843": "私人房間",
"844": "請輸入房間密碼",
"845": "遊玩時長",
"846": "譜面被遊玩",
"847": "最高排名",
"848": "創作譜面",
"849": "成就",
"850": "拼圖",
"851": "個人簡介",
"852": "金幣",
"853": "音符",
"854": "編輯資料",
"855": "建立或選擇一個房間開始遊戲",
"856": "開放房間",
"857": "性別",
"858": "出生日期",
"859": "所屬地區",
"860": "簡介內容",
"861": "男",
"862": "女",
"863": "建立或者選擇一個房間",
"864": "選擇歌曲",
"865": "選擇譜面",
"866": "10人房",
"867": "Dan Records",
"868": "Are you sure to delete your account with play data",
"869": "Thank You for Playing!",
"900": "線上遊玩", 
"901": "離線遊玩", 
"902": "偏移調整助手", 
"903": "點選\"開始\" 後你將聽到一段節奏, 更隨節奏點按螢幕中央或按F键", 
"904": "直到數字穩定為止, 如需要key音作參考, 請開啟音效", 
"905": "開始", 
"906": "重置", 
"907": "顯示音符", 
"908": "開啟音效", 
"909": "點選\"開始\",你將聽到一段節拍,請跟隨節奏按F鍵",
"910": "設定",
"911": "聊天室",
"912": "網路",
"913": "調整",
"914": "大廳",
"915": "房間",
"916": "玩家資訊",
"917": "成績",
"918": "外觀",
"919": "商店",
"920": "任務",
"921": "譜面",
"922": "歌曲",
"923": "新聞",
"924": "投稿",
"925": "我的最愛",
"926": "收藏編輯",
"927": "道具商店",
"1000": "請登入", 
"1001": "請稍候", 
"1002": "請按照節奏聲音按F或觸摸螢幕, 通過調整Offset讓note與紅線重合", 
"1003": "你的成績似乎受到了不正確的offset影響", 
"1004": "需要自動校準嗎?", 
"1005": "你沒有所需的譜面", 
"1006": "動態offset校準", 
"1007": "在遊玩過程中動態調整offset，當啟用這選項時，成績將會無效", 
"1008": "使用新的key音引擎遊玩key譜面時可獲得最佳的遊戲體驗", 
"1009": "Malody已更新，點選查看新功能", 
"1010": "歡迎來到Malody Store，在store中提供來自各地玩家創作並審核通過的最新80張譜面，如果需要更多譜面或者想要提交自己創作的譜面，請訪問我們的網頁 http://m.mugzone.net", 
"1011": "點按兩下開啟這個譜面", 
"1012": "連線逾時", 
"1013": "如果你是第一次玩Malody, 建議你使用助手校正offset以獲得最佳遊戲體驗, 助手會重置你之前設定的offset, 是否使用助手?", 
"1014": "預設", 
"1015": "按[Space]查看結果", 
"1016": "點選查看结果", 
"1017": "Guest", 
"1018": "確定離開Malody?", 
"1019": "伺服器錯誤", 
"1020": "確定", 
"1021": "取消", 
"1022": "設定給全部偏移", 
"1023": "設定給譜面偏移", 
"1024": "此歌曲無法讀取, 是否重試?", 
"1025": "重新讀取", 
"1026": "刪除歌曲", 
"1027": "是否使用這個音樂建立譜面?", 
"1028": "是否使用這個圖片做為背景?", 
"1029": "這個歌曲沒有譜面, 是否創立譜面?", 
"1030": "是否播放這個回放?", 
"1031": "你想要進行什麼操作", 
"1032": "載入Skin成功", 
"1033": "載入Skin失敗", 
"1034": "確定要刪除這個Skin嗎?", 
"1035": "選擇譜面玩法類型", 
"1036": "減少軌道數量會導致多於軌道的note被刪除,是否繼續?", 
"1037": "目前只支援查看第三方來源的譜面,無法編輯及保存", 
"1038": "即將顯示該歌曲下的所有譜面, 包括:\nStable: 經過審核的高品質譜面, 可以上傳成績\nBeta/Alpha: 編寫中的譜面, 無法上傳成績", 
"1039": "滾動時間軸,再點按一次[複製]按鈕來選擇複製結束位置", 
"1040": "點按[貼上]按鈕來貼上note", 
"1041": "點按以繼續", 
"1042": "聊天室", 
"1043": "操作成功", 
"1044": "譜面匯入成功", 
"1045": "譜面匯入失敗", 
"1046": "為盤軌道設定備用鍵",
"1047": "Malody支援Android OTG鍵盤,請確認裝置已連結鍵盤",
"1048": "公開頻道中有人提到了你",
"1049": "開發人員希望你通過Malody獲得快樂,如果你覺得Malody是個不錯的遊戲,請在App Store中為Malody留下評論幫助其他玩家挑選遊戲",
"1051": "好的,現在評估",
"1052": "Ring演示模式",
"1053": "請確保電腦支援ASIO輸出模式再開啟此選項",
"1054": "請重新啟動Malody以使設定生效",
"1055": "Malody是獻給世界上所有音樂遊戲愛好者的禮物",
"1056": "購買此外觀將消費%d金幣",
"1057": "偏差修正數: ",
"1058": "正在登入",
"1059": "已登入",
"1060": "請選擇遊戲難度",
"1061": "請先取消準備狀態",
"1062": "有玩家未準備好",
"1063": "已加入下載隊列",
"1064": "已連結伺服器",
"1065": "你已成為房主",
"1066": "Oops,你的金幣用完了。在Malody下載譜面需要金幣,可以通過遊玩譜面,做日常任務等管道取得金幣。",
"1067": "快速回覆",
"1068": "準備！",
"1069": "開始吧",
"1070": "請等我一分鐘",
"1071": "這譜太難了",
"1072": "這譜隨手全連",
"1073": "打的不錯",
"1074": "再來一局",
"1075": "歡迎參與Malody搶鮮體驗！\n現時我們遊戲功能還不完善,各方面還需要繼續開發或者調整。歡迎回報或者提意見,我們會持續改進完成這個遊戲,感謝一直以來的支持！",
"1100": "是否確定登出？",
"1101": "按鍵設定已重置",
"1102": "重新加載譜面可能會花些時間,是否繼續？",
"1103": "成就解鎖！",
"1104": "拼圖解鎖！",
"1105": "已新增至我的最愛",
"1106": "現在無法儲存個人資料",
"1107": "更換背景圖需要花費5000金幣（維持一個月）,是否繼續？",
"1108": "你沒有足够的金幣",
"1109": "每次更改使用者名稱需要花費80000金幣（180天只能變更一次）,是否繼續？",
"1110": "確定要退出當前房間嗎？",
"1111": "前面的區域,以後再來探索吧",
"1112": "你不在任何房間中",
"1113": "支付%d金幣購買一個上傳空間",
"1114": "購買成功",
"1115": "由於系統原因,購買失敗",
"1116": "密碼重置郵件已發送到電子信箱",
"1117": "再次確認是否清空本地成績？",
"1118": "購買成功",
"1119": "在野性解放模式下,你可以自由的調節各項判定規則,但成績不會提交至伺服器",
"1120": "尾部判定",
"1121": "手指追跡",
"1122": "早按Miss",
"1123": "禁止暫停",
"1124": "音樂速度",
"1125": "正在掃描譜面目錄",
"1126": "譜面清單已重新整理",
"1127": "儲存至: ",
"1128": "新版本可用",
"1129": "暫停並繼續已被禁止",
"1130": "只有使用Malody V用戶端玩家才可進入10人房",
"1131": "分享成功",
"1200": "選擇操作",
"1201": "選擇排序方式",
"1202": "再次確認執行",
"1203": "選擇模式",
"1204": "選擇匯入內容",
"1205": "選擇譜面風格",
"1206": "確認取消上傳？",
"1207": "選擇抖內金額",
"1208": "設定禁言天數",
"1209": "快速鍵",
"1210": "上傳並分享譜面給其他玩家",
"1211": "Are you sure to share the skin to workshop",
"1300": "傑作",
"1301": "特別正評",
"1302": "正評",
"1303": "多半正評",
"1304": "褒貶不一",
"1305": "多半負評",
"1306": "負評",
"1307": "負評如潮",
"2000": "刪除時發生錯誤", 
"2001": "無法刪除sm格式譜面", 
"2002": "傳送訊息時發生錯誤", 
"2003": "您的版本過舊, 請升級至最新版本", 
"2004": "譜面未上架", 
"2005": "登入失敗: 請稍後再試", 
"2006": "登入失敗: ID或密碼錯誤", 
"2007": "請選擇比起點更晚的位置", 
"2008": "Hold位置上已有其他note", 
"2009": "複製檔案到編輯空間失敗", 
"2010": "請先放置Hold", 
"2011": "不能在此放置note", 
"2012": "只支援jpg/png格式的图片", 
"2013": "目前只能編輯Pad/Key譜面, 未來將開放其他模式", 
"2014": "只支援mp3/ogg格式的音訊", 
"2015": "sid對應的歌曲不存在", 
"2016": "cid對應的譜面不存在", 
"2017": "你不是譜面作者", 
"2018": "歌曲資訊有誤,請核對", 
"2019": "無法更新已上架譜面", 
"2020": "伺服器錯誤,請聯絡我們", 
"2021": "無法上傳到伺服器", 
"2022": "請先取消前一個上傳工作", 
"2023": "自動測量BPM失敗", 
"2024": "目前所上傳的檔案在伺服器端已存在,編輯器會將此檔案重新命名後再嘗試上傳", 
"2025": "請使用小於2Mb的圖片檔案", 
"2026": "本地磁碟已滿或唯讀", 
"2027": "無法匯入此格式檔案", 
"2028": "沒有選中的note", 
"2029": "無可用上傳空間!\n每上傳一個譜面將佔用一個上傳空間,上架的譜面不會佔用上傳空間,可以選擇將已上傳的譜面上架, 或購買更多上傳空間", 
"2030": "無法抖內非上架譜", 
"2031": "金幣不足以抖內", 
"2032": "無法評價此譜面", 
"2033": "與伺服器斷開連結", 
"2034": "不能在此處增加BPM", 
"2035": "錯誤BPM", 
"2036": "不能執行操作", 
"2037": "活躍帳戶才可進行編輯",
"2038": "背景影片尺寸限制是 720p@25fps",
"2039": "不能複製非mc譜面", 
"2040": "無法過濾本地外觀",
"2041": "你沒有足夠的金幣", 
"2042": "不能下載該檔案", 
"2043": "不能進入該房間", 
"2044": "不能建立新房間", 
"2045": "請輸入房間名稱", 
"2046": "已經在房間中",
"2047": "重放檔案已損壞",
"2048": "無法遊玩空譜面",
"2049": "譜面載入失敗",
"2050": "關閉動態校準才可上傳成績",
"2052": "房間已滿",
"2053": "成績過低,無法上傳",
"2054": "此功能尚在內測",
"2055": "譜面未收錄",
"2056": "請新增note",
"2057": "你已有6份譜面待稽核中",
"2058": "請升級至最新版本以使用此功能",
"2059": "密碼錯誤！",
"2060": "不允許無人隊伍",
"2061": "[問題]需要有正確填寫的Title,Artist,Version等資訊",
"2062": "[問題] note密度過高或note重疊",
"2063": "[更好]給譜面新增一張背景圖",
"2064": "[問題]譜面需要有至少60秒的可遊玩時長和相應的內容",
"2100": "請先選擇一個Slide",
"2101": "請選擇至少3個Wipe",
"2102": "請修改譜面問題再投稿",
"2103": "標題或藝術家包含非英文字元",
"2104": "帳戶已停權",
"2105": "請填下基本資訊",
"2106": "密碼不可以小於8字元",
"2107": "密碼不匹配",
"2108": "名稱已被注册",
"2109": "信箱已被注册",
"2110": "使用者名稱只可使用a-z 0-9 and []（）-_@等字元,且必須大於3字元",
"2111": "信箱地址不符合規範",
"2112": "上傳失敗",
"2113": "音訊轉碼失敗",
"2114": "請選擇一個譜面",
"2115": "日期格式錯誤",
"2116": "在180天內已改過使用者名稱",
"2117": "由於某些原因,暫時無法上傳更多譜面",
"2118": "請先設定譜面伺服器地址",
"2119": "無法抖內自己",
"2120": "抖內需先提交成績",
"2121": "你已在此譜面上抖內1000金幣",
"2122": "主機無法通訊或API版本不相容",
"2123": "伺服器即將重新啟動,多人遊戲已被暫停",
"2124": "伺服器上找不到對應檔案",
"2125": "無法與Steam建立連結",
"2126": "無許可",
"2127": "Please select one skin",
"2128": "Can not find proper info for the skin",
"2129": "The Host has incompatible API",
"3000": "進入測試前改動會自動保存", 
"3001": "退出前要保存改動嗎?", 
"3002": "清除note操作是不可逆轉的, 是否繼續?", 
"3003": "退出", 
"3004": "歌曲名", 
"3005": "演出者", 
"3006": "音訊檔案", 
"3007": "歌曲封面", 
"3008": "背景圖", 
"3009": "BPM", 
"3010": "偏差", 
"3011": "儲存", 
"3012": "譜面資訊", 
"3013": "上傳至伺服器", 
"3014": "清除所有note", 
"3015": "自動測量", 
"3016": "請滾動時間軸,點按設定Hold結束位置", 
"3017": "從目前位置測試", 
"3018": "從頭開始設定", 
"3020": "上傳成功", 
"3021": "儲存成功", 
"3022": "已取消上傳", 
"3023": "是否取消上傳?", 
"3024": "自動測量BPM完成", 
"3025": "套用自動測量結果", 
"3026": "不穩定度:", 
"3027": "這是此譜面第一次編輯，是否需要編輯器自動測量音樂的BPM與offset?如跳過，也可以在之後的編輯中於選單中重新開啟此功能，或是通過選單的中繼資料項目手動填寫BPM", 
"3028": "如何上架譜面", 
"3029": "開啟線上譜面頁", 
"3030": "軌道數量", 
"3031": "儲存並退出", 
"3032": "不儲存退出", 
"3033": "購買上傳空間", 
"3034": "目前總共上傳空間:", 
"3035": "節拍劃分", 
"3036": "速度", 
"3037": "切換", 
"3038": "資料夾清單", 
"3039": "成功解壓縮至 <export> 資料夾中", 
"3040": "解壓縮失敗", 
"3041": "解壓縮譜包", 
"3042": "成功解壓縮至 <Documents/export> 資料夾", 
"3043": "每分鐘自動保存", 
"3044": "鎖定note", 
"3045": "下降速度", 
"3046": "再次按下按鍵設定音符結束位置",
"3047": "音樂結束,大功告成！",
"3048": "砰！一隻野生的Marlo娘出現了！",
"3049": "小節線開始於",
"3050": "設定為當前位置",
"3051": "打擊數",
"3052": "譜面提交",
"3053": "提交譜面以供稽核",
"3054": "等待稽核",
"3055": "稽核中",
"3056": "被打回",
"3057": "未投稿",
"3058": "標記為稽核中",
"3059": "標記為已拒絕",
"3060": "取消投稿",
"3061": "聯絡稽核者",
"3062": "聯絡作者",
"3063": "下載此譜面",
"3064": "選擇複製",
"3065": "粘貼",
"3066": "剪切",
"3067": "左右翻轉",
"3068": "栅格設定",
"3069": "栅格密度",
"3070": "栅格對齊",
"3071": "修改Slide",
"3072": "Slide轉Wipe",
"3073": "Wipe轉Slide",
"3074": "預覽時間",
"3075": "標題原文",
"3076": "演出者原文",
"3077": "單步輸入",
"3078": "創作者",
"3079": "上傳",
"3080": "測試遊玩",
"3081": "撤銷",
"3082": "重做",
"3083": "BPM檢測",
"3084": "公共快速鍵",
"3085": "當前模式快速鍵",
"3086": "新增",
"3087": "移除",
"3088": "是否將BPM檢測結果套用至第一個時間記錄？",
"3089": "完整Divide分度",
"3090": "進行AI稽核",
"3091": "栅格縮放",
"3092": "更多功能",
"3093": "顯示統計",
"3094": "Note厚度",
"3095": "滾動係數",
"3096": "Note對齊栅格",
"3097": "同行評審",
"3098": "關聯Note",
"3099": "關聯時刻",
"3100": "回覆",
"3101": "評審標籤",
"3102": "待回覆",
"3103": "已關閉",
"3104": "重新打開",
"3105": "無效問題",
"3500": "儲存",
"3501": "試玩",
"3502": "",
"3503": "音樂音量+",
"3504": "音樂音量-",
"3505": "Key音音量+",
"3506": "Key音音量-",
"3507": "播放速度+",
"3508": "播放速度-",
"3509": "播放/暫停",
"3510": "改變節拍+",
"3511": "改變節拍-",
"3512": "複製",
"3513": "貼上",
"3514": "Note工具",
"3515": "Hold工具",
"3516": "選擇工具",
"3517": "删除工具",
"3518": "撤銷",
"3519": "重做",
"3520": "翻轉Note",
"3521": "打開BPM清單",
"3522": "打開資訊面板",
"3523": "打開上傳面板",
"3524": "Wipe工具",
"3525": "Slide工具",
"3526": "分割",
"3527": "合併",
"3528": "Flick工具",
"3529": "改變大小",
"3530": "新增Don",
"3531": "新增Ka",
"3532": "新增Roll",
"3533": "新增Balloon",
"3534": "新增空白",
"3535": "向左一格",
"3536": "向右一格",
"3537": "剪切",
"3538": "删除所選",
"3539": "縮放+",
"3540": "縮放-",
"3541": "新增問題",
"3542": "Mute Key Sound",
"3543": "More Action",
"3600": "返回",
"3601": "選擇上移",
"3602": "選擇下移",
"3603": "確定",
"3604": "播放暫停",
"3605": "播放下一首",
"3606": "播放上一首",
"3607": "重新整理譜面",
"3608": "截圖",
"3609": "快速重新開始",
"4000": "不明", 
"4001": "亞洲", 
"4002": "非洲", 
"4003": "北美洲", 
"4004": "南美洲", 
"4005": "歐洲", 
"4006":"澳洲",
"4007":"日本",
"4008":"中國",
"4009":"美國",
"4010":"台灣(中國)",
"4011":"南韓",
"4012":"德國",
"4013":"俄羅斯",
"4014":"波蘭",
"4015":"法國",
"4016":"香港(中國)",
"4017":"加拿大",
"4018":"智利",
"4019":"印度尼西亞",
"4020":"巴西",
"4021":"泰國",
"4022":"義大利",
"4023":"英國",
"4024":"阿根廷",
"4025":"菲律賓",
"4026":"芬蘭",
"4027":"荷蘭",
"4028":"馬來西亞",
"4029":"西班牙",
"4030":"墨西哥",
"4031":"瑞典",
"4032":"新加坡",
"4033":"紐西蘭",
"4034":"越南",
"4035":"比利時",
"4036":"瑞士",
"4037":"奧地利",
"4038":"保加利亞",
"4039": "澳門(中國)",
"5000": "歡迎來到 Malody V, 需要指南嗎?",
"5001": "Import local charts/skins/music etc.",
"5002": "Filter song list by favourite",
"5003": "Filter song list by play mode",
"5004": "Multiplayer lobby, Dan room",
"5005": "View chart/skin shared by other players",
"5006": "Daily quests",
"5007": "News from server",
"5008": "View friends or search other players",
"5009": "Chat with other online players",
"5010": "View download records, music controller",
"5011": "Add selected chart to collection",
"5012": "Change play difficulty/mods",
"5013": "View chart comments, global ranking",
"5014": "Change judge difficulty, custom judgement",
"5015": "Change note speed",
"5016": "Manage/Share chart",
"5017": "More options like offset and graphics are available when the game is paused",
"5018": "Donate gold to chart creator",
"5019": "Recommend/Not Recommend the chart to other players",
"5020": "Share chart replay",
"5021": "View technical statistics"
}
